﻿#Answer Media
advertising.com, 25034, RESELLER
advertising.com, 25033, RESELLER
advertising.com, 6614, RESELLER
rubiconproject.com, 16904, RESELLER, 0bfd66d529a55807
spotxchange.com, 85519, RESELLER, 7842df1d2fe2db34
indexexchange.com, 186684, DIRECT
appnexus.com, 9393, DIRECT
freewheel.tv, 327377, RESELLER
beachfront.com, 4969, RESELLER 
tremorhub.com, cdgfn, RESELLER, 1a4e959a1b50034a
springserve.com, 1, RESELLER, a24eb641fc82e93d
ssp.ynxs.io, 185, RESELLER
rubiconproject.com, 17156, RESELLER, 0bfd66d529a55807
advertising.com, 24667, RESELLER
streamrail.net, 5715e0602ed89a000200022f, RESELLER
streamrail.net, 5715e0602ed89a000200022f, DIRECT
lkqd.net, 505, RESELLER, 59c49fa9598a0117
lkqd.net, 307, RESELLER, 59c49fa9598a0117
lkqd.com, 307, RESELLER, 59c49fa9598a0117
lkqd.net, 307, DIRECT, 59c49fa9598a0117
lkqd.com, 307, DIRECT, 59c49fa9598a0117
vertamedia.com, 282639, RESELLER, 7de89dc7742b5b11